<?xml version="1.0" encoding="UTF-8" standalone="no"?>
<svg width="64.6289mm" height="62.3711mm"
 xmlns="http://www.w3.org/2000/svg" xmlns:xlink="http://www.w3.org/1999/xlink"  version="1.2" baseProfile="tiny">
<title>Qt Svg Document</title>
<desc>Generated with Qt</desc>
<defs>
</defs>
<g fill="none" stroke="black" stroke-width="1" fill-rule="evenodd" stroke-linecap="square" stroke-linejoin="bevel" >

<g fill="none" stroke="#000000" stroke-opacity="1" stroke-width="3" stroke-linecap="butt" stroke-linejoin="miter" stroke-miterlimit="2" transform="matrix(1,0,0,1,114,110)"
font-family="Noto Sans" font-size="12.5" font-weight="400" font-style="normal" 
>
</g>

<g fill="#d686ea" fill-opacity="0.996078" stroke="#000000" stroke-opacity="1" stroke-width="3" stroke-linecap="butt" stroke-linejoin="miter" stroke-miterlimit="2" transform="matrix(1,0,0,1,114,110)"
font-family="Noto Sans" font-size="12.5" font-weight="400" font-style="normal" 
>
<path vector-effect="none" fill-rule="evenodd" d="M0,0 L17.2727,23.6364 L51.0909,-2.72727 L64.5455,-27.2727 L80,0 L95.4545,27.2727 L108.909,2.72727 L88.1818,-26.188 L64.5455,-44.3698 L80,-46.188 L86.1527,-60.4811 L58.5886,-49.1024 L23.1836,-45.6097 L29.1061,-3.14044 L0,0"/>
</g>

<g fill="none" stroke="#000000" stroke-opacity="1" stroke-width="3" stroke-linecap="butt" stroke-linejoin="miter" stroke-miterlimit="2" transform="matrix(1,0,0,1,114,110)"
font-family="Noto Sans" font-size="12.5" font-weight="400" font-style="normal" 
>
</g>

<g fill="#6f54f4" fill-opacity="0.529412" stroke="#000000" stroke-opacity="1" stroke-width="3" stroke-linecap="butt" stroke-linejoin="miter" stroke-miterlimit="2" transform="matrix(0.5,-0.866025,0.866025,0.5,114,110)"
font-family="Noto Sans" font-size="12.5" font-weight="400" font-style="normal" 
>
<path vector-effect="none" fill-rule="evenodd" d="M0,0 L17.2727,23.6364 L51.0909,-2.72727 L64.5455,-27.2727 L80,0 L95.4545,27.2727 L108.909,2.72727 L88.1818,-26.188 L64.5455,-44.3698 L80,-46.188 L86.1527,-60.4811 L58.5886,-49.1024 L23.1836,-45.6097 L29.1061,-3.14044 L0,0"/>
</g>

<g fill="none" stroke="#000000" stroke-opacity="1" stroke-width="3" stroke-linecap="butt" stroke-linejoin="miter" stroke-miterlimit="2" transform="matrix(1,0,0,1,114,110)"
font-family="Noto Sans" font-size="12.5" font-weight="400" font-style="normal" 
>
</g>

<g fill="#8db4be" fill-opacity="0.603922" stroke="#000000" stroke-opacity="1" stroke-width="3" stroke-linecap="butt" stroke-linejoin="miter" stroke-miterlimit="2" transform="matrix(-0.5,-0.866025,0.866025,-0.5,114,110)"
font-family="Noto Sans" font-size="12.5" font-weight="400" font-style="normal" 
>
<path vector-effect="none" fill-rule="evenodd" d="M0,0 L17.2727,23.6364 L51.0909,-2.72727 L64.5455,-27.2727 L80,0 L95.4545,27.2727 L108.909,2.72727 L88.1818,-26.188 L64.5455,-44.3698 L80,-46.188 L86.1527,-60.4811 L58.5886,-49.1024 L23.1836,-45.6097 L29.1061,-3.14044 L0,0"/>
</g>

<g fill="none" stroke="#000000" stroke-opacity="1" stroke-width="3" stroke-linecap="butt" stroke-linejoin="miter" stroke-miterlimit="2" transform="matrix(1,0,0,1,114,110)"
font-family="Noto Sans" font-size="12.5" font-weight="400" font-style="normal" 
>
</g>

<g fill="#abd1ae" fill-opacity="0.65098" stroke="#000000" stroke-opacity="1" stroke-width="3" stroke-linecap="butt" stroke-linejoin="miter" stroke-miterlimit="2" transform="matrix(-1,0,0,-1,114,110)"
font-family="Noto Sans" font-size="12.5" font-weight="400" font-style="normal" 
>
<path vector-effect="none" fill-rule="evenodd" d="M0,0 L17.2727,23.6364 L51.0909,-2.72727 L64.5455,-27.2727 L80,0 L95.4545,27.2727 L108.909,2.72727 L88.1818,-26.188 L64.5455,-44.3698 L80,-46.188 L86.1527,-60.4811 L58.5886,-49.1024 L23.1836,-45.6097 L29.1061,-3.14044 L0,0"/>
</g>

<g fill="none" stroke="#000000" stroke-opacity="1" stroke-width="3" stroke-linecap="butt" stroke-linejoin="miter" stroke-miterlimit="2" transform="matrix(1,0,0,1,114,110)"
font-family="Noto Sans" font-size="12.5" font-weight="400" font-style="normal" 
>
</g>

<g fill="#e2d10d" fill-opacity="0.835294" stroke="#000000" stroke-opacity="1" stroke-width="3" stroke-linecap="butt" stroke-linejoin="miter" stroke-miterlimit="2" transform="matrix(-0.5,0.866025,-0.866025,-0.5,114,110)"
font-family="Noto Sans" font-size="12.5" font-weight="400" font-style="normal" 
>
<path vector-effect="none" fill-rule="evenodd" d="M0,0 L17.2727,23.6364 L51.0909,-2.72727 L64.5455,-27.2727 L80,0 L95.4545,27.2727 L108.909,2.72727 L88.1818,-26.188 L64.5455,-44.3698 L80,-46.188 L86.1527,-60.4811 L58.5886,-49.1024 L23.1836,-45.6097 L29.1061,-3.14044 L0,0"/>
</g>

<g fill="none" stroke="#000000" stroke-opacity="1" stroke-width="3" stroke-linecap="butt" stroke-linejoin="miter" stroke-miterlimit="2" transform="matrix(1,0,0,1,114,110)"
font-family="Noto Sans" font-size="12.5" font-weight="400" font-style="normal" 
>
</g>

<g fill="#ecd5cc" fill-opacity="0.717647" stroke="#000000" stroke-opacity="1" stroke-width="3" stroke-linecap="butt" stroke-linejoin="miter" stroke-miterlimit="2" transform="matrix(0.5,0.866025,-0.866025,0.5,114,110)"
font-family="Noto Sans" font-size="12.5" font-weight="400" font-style="normal" 
>
<path vector-effect="none" fill-rule="evenodd" d="M0,0 L17.2727,23.6364 L51.0909,-2.72727 L64.5455,-27.2727 L80,0 L95.4545,27.2727 L108.909,2.72727 L88.1818,-26.188 L64.5455,-44.3698 L80,-46.188 L86.1527,-60.4811 L58.5886,-49.1024 L23.1836,-45.6097 L29.1061,-3.14044 L0,0"/>
</g>

<g fill="none" stroke="#000000" stroke-opacity="1" stroke-width="3" stroke-linecap="butt" stroke-linejoin="miter" stroke-miterlimit="2" transform="matrix(1,0,0,1,114,110)"
font-family="Noto Sans" font-size="12.5" font-weight="400" font-style="normal" 
>
</g>
</g>
</svg>
