<?xml version="1.0" encoding="UTF-8" standalone="no"?>
<svg width="60.3956mm" height="63.2178mm"
 xmlns="http://www.w3.org/2000/svg" xmlns:xlink="http://www.w3.org/1999/xlink"  version="1.2" baseProfile="tiny">
<title>Qt SVG Document</title>
<desc>Generated with Qt</desc>
<defs>
</defs>
<g fill="none" stroke="black" stroke-width="1" fill-rule="evenodd" stroke-linecap="square" stroke-linejoin="bevel" >

<g fill="none" stroke="#000000" stroke-opacity="1" stroke-width="3" stroke-linecap="butt" stroke-linejoin="miter" stroke-miterlimit="2" transform="matrix(1,0,0,1,127,193)"
font-family="Noto Sans" font-size="12.5" font-weight="400" font-style="normal" 
>
</g>

<g fill="#bd0e0e" fill-opacity="0.847059" stroke="#000000" stroke-opacity="1" stroke-width="3" stroke-linecap="butt" stroke-linejoin="miter" stroke-miterlimit="2" transform="matrix(1,0,0,1,127,193)"
font-family="Noto Sans" font-size="12.5" font-weight="400" font-style="normal" 
>
<path vector-effect="none" fill-rule="evenodd" d="M0,0 L25.2372,16.7603 L7.03164,-28.1765 L67.5572,-8.697 L50.1284,-41.8094 L80.0333,-125.403 L31.5876,-84.2232 L35.0018,-121.486 L-24.6457,-187.247 L-6.44012,-142.31 L-31.6774,-159.07 L0,0"/>
</g>

<g fill="none" stroke="#000000" stroke-opacity="1" stroke-width="3" stroke-linecap="butt" stroke-linejoin="miter" stroke-miterlimit="2" transform="matrix(1,0,0,1,127,193)"
font-family="Noto Sans" font-size="12.5" font-weight="400" font-style="normal" 
>
</g>

<g fill="#515179" fill-opacity="0.905882" stroke="#000000" stroke-opacity="1" stroke-width="3" stroke-linecap="butt" stroke-linejoin="miter" stroke-miterlimit="2" transform="matrix(-0.923711,0.38309,0.38309,0.923711,127,193)"
font-family="Noto Sans" font-size="12.5" font-weight="400" font-style="normal" 
>
<path vector-effect="none" fill-rule="evenodd" d="M0,0 L25.2372,16.7603 L7.03164,-28.1765 L67.5572,-8.697 L50.1284,-41.8094 L80.0333,-125.403 L31.5876,-84.2232 L35.0018,-121.486 L-24.6457,-187.247 L-6.44012,-142.31 L-31.6774,-159.07 L0,0"/>
</g>

<g fill="none" stroke="#000000" stroke-opacity="1" stroke-width="3" stroke-linecap="butt" stroke-linejoin="miter" stroke-miterlimit="2" transform="matrix(1,0,0,1,127,193)"
font-family="Noto Sans" font-size="12.5" font-weight="400" font-style="normal" 
>
</g>
</g>
</svg>
