<?xml version="1.0" encoding="UTF-8" standalone="no"?>
<svg width="51.9289mm" height="55.3156mm"
 xmlns="http://www.w3.org/2000/svg" xmlns:xlink="http://www.w3.org/1999/xlink"  version="1.2" baseProfile="tiny">
<title>Qt SVG Document</title>
<desc>Generated with Qt</desc>
<defs>
</defs>
<g fill="none" stroke="black" stroke-width="1" fill-rule="evenodd" stroke-linecap="square" stroke-linejoin="bevel" >

<g fill="none" stroke="#000000" stroke-opacity="1" stroke-width="3" stroke-linecap="butt" stroke-linejoin="miter" stroke-miterlimit="2" transform="matrix(1,0,0,1,6,144)"
font-family="Noto Sans" font-size="12.5" font-weight="400" font-style="normal" 
>
</g>

<g fill="#d6fdfe" fill-opacity="0.694118" stroke="#000000" stroke-opacity="1" stroke-width="3" stroke-linecap="butt" stroke-linejoin="miter" stroke-miterlimit="2" transform="matrix(1,0,0,1,6,144)"
font-family="Noto Sans" font-size="12.5" font-weight="400" font-style="normal" 
>
<path vector-effect="none" fill-rule="evenodd" d="M0,0 L160,0 L119,-9 L80,-46.188 L28.2942,-31.007 L0,0"/>
</g>

<g fill="none" stroke="#000000" stroke-opacity="1" stroke-width="3" stroke-linecap="butt" stroke-linejoin="miter" stroke-miterlimit="2" transform="matrix(1,0,0,1,6,144)"
font-family="Noto Sans" font-size="12.5" font-weight="400" font-style="normal" 
>
</g>

<g fill="#e985c5" fill-opacity="0.937255" stroke="#000000" stroke-opacity="1" stroke-width="3" stroke-linecap="butt" stroke-linejoin="miter" stroke-miterlimit="2" transform="matrix(-0.5,-0.866025,0.866025,-0.5,166,144)"
font-family="Noto Sans" font-size="12.5" font-weight="400" font-style="normal" 
>
<path vector-effect="none" fill-rule="evenodd" d="M0,0 L160,0 L119,-9 L80,-46.188 L28.2942,-31.007 L0,0"/>
</g>

<g fill="none" stroke="#000000" stroke-opacity="1" stroke-width="3" stroke-linecap="butt" stroke-linejoin="miter" stroke-miterlimit="2" transform="matrix(1,0,0,1,6,144)"
font-family="Noto Sans" font-size="12.5" font-weight="400" font-style="normal" 
>
</g>

<g fill="#bf8ab0" fill-opacity="0.980392" stroke="#000000" stroke-opacity="1" stroke-width="3" stroke-linecap="butt" stroke-linejoin="miter" stroke-miterlimit="2" transform="matrix(-0.5,0.866025,-0.866025,-0.5,86,5.43594)"
font-family="Noto Sans" font-size="12.5" font-weight="400" font-style="normal" 
>
<path vector-effect="none" fill-rule="evenodd" d="M0,0 L160,0 L119,-9 L80,-46.188 L28.2942,-31.007 L0,0"/>
</g>

<g fill="none" stroke="#000000" stroke-opacity="1" stroke-width="3" stroke-linecap="butt" stroke-linejoin="miter" stroke-miterlimit="2" transform="matrix(1,0,0,1,6,144)"
font-family="Noto Sans" font-size="12.5" font-weight="400" font-style="normal" 
>
</g>

<g fill="#ae8deb" fill-opacity="0.803922" stroke="#000000" stroke-opacity="1" stroke-width="3" stroke-linecap="butt" stroke-linejoin="miter" stroke-miterlimit="2" transform="matrix(1,0,0,-1,6,144)"
font-family="Noto Sans" font-size="12.5" font-weight="400" font-style="normal" 
>
<path vector-effect="none" fill-rule="evenodd" d="M0,0 L160,0 L119,-9 L80,-46.188 L28.2942,-31.007 L0,0"/>
</g>

<g fill="none" stroke="#000000" stroke-opacity="1" stroke-width="3" stroke-linecap="butt" stroke-linejoin="miter" stroke-miterlimit="2" transform="matrix(1,0,0,1,6,144)"
font-family="Noto Sans" font-size="12.5" font-weight="400" font-style="normal" 
>
</g>

<g fill="#99def6" fill-opacity="0.996078" stroke="#000000" stroke-opacity="1" stroke-width="3" stroke-linecap="butt" stroke-linejoin="miter" stroke-miterlimit="2" transform="matrix(-0.5,0.866025,0.866025,0.5,86,5.43594)"
font-family="Noto Sans" font-size="12.5" font-weight="400" font-style="normal" 
>
<path vector-effect="none" fill-rule="evenodd" d="M0,0 L160,0 L119,-9 L80,-46.188 L28.2942,-31.007 L0,0"/>
</g>

<g fill="none" stroke="#000000" stroke-opacity="1" stroke-width="3" stroke-linecap="butt" stroke-linejoin="miter" stroke-miterlimit="2" transform="matrix(1,0,0,1,6,144)"
font-family="Noto Sans" font-size="12.5" font-weight="400" font-style="normal" 
>
</g>

<g fill="#f6bd93" fill-opacity="0.980392" stroke="#000000" stroke-opacity="1" stroke-width="3" stroke-linecap="butt" stroke-linejoin="miter" stroke-miterlimit="2" transform="matrix(-0.5,-0.866025,-0.866025,0.5,166,144)"
font-family="Noto Sans" font-size="12.5" font-weight="400" font-style="normal" 
>
<path vector-effect="none" fill-rule="evenodd" d="M0,0 L160,0 L119,-9 L80,-46.188 L28.2942,-31.007 L0,0"/>
</g>

<g fill="none" stroke="#000000" stroke-opacity="1" stroke-width="3" stroke-linecap="butt" stroke-linejoin="miter" stroke-miterlimit="2" transform="matrix(1,0,0,1,6,144)"
font-family="Noto Sans" font-size="12.5" font-weight="400" font-style="normal" 
>
</g>
</g>
</svg>
